{
	"info": {
		"_postman_id": "675289c1-4b00-4091-8d10-2ae588c0664b",
		"name": "New Collection",
		"schema": "https://schema.getpostman.com/json/collection/v2.1.0/collection.json",
		"_uid": "846584-675289c1-4b00-4091-8d10-2ae588c0664b"
	},
	"item": [
		{
			"name": "New Request",
			"id": "f77384cc-ae1b-48f0-9b0e-74d8546b42a0",
			"protocolProfileBehavior": {
				"disableBodyPruning": true
			},
			"request": {
				"method": "GET",
				"header": [],
				"url": {
					"raw": "dsjdgk",
					"host": [
						"dsjdgk"
					]
				}
			},
			"response": []
		}
	]
}